module github.com/scraly/learning-go-by-examples/go-rest-api

go 1.16

require (
	github.com/go-openapi/errors v0.20.0
	github.com/go-openapi/loads v0.20.2
	github.com/go-openapi/runtime v0.19.29
	github.com/go-openapi/spec v0.20.3
	github.com/go-openapi/strfmt v0.20.1
	github.com/go-openapi/swag v0.19.15
	github.com/jessevdk/go-flags v1.5.0
	golang.org/x/net v0.0.0-20210716203947-853a461950ff
)
